{
    "name": "dyno",
    "tree": {
        "$className": "DataModel",
        "HttpService": {
            "$className": "HttpService",
            "$properties": {
                "HttpEnabled": true
            }
        },
        "ReplicatedFirst": {
            "$className": "ReplicatedFirst",
            "main": {
                "$path": "../modules/crosswalk/src/ClientMain.client.lua"
            },
            "ClientLoader": {
                "$path": "../modules/crosswalk/src/ClientLoader"
            }
        },
        "ReplicatedStorage": {
            "$className": "ReplicatedStorage",
            "ClientModules": {
                "$path": "src/ClientModules",
                "DynoClient": {
                    "$path": "../src/DynoClient"
                }
            },
            "SharedModules": {
                "$path": "src/SharedModules"
            },
            "DynoCommon": {
                "$path": "../src/DynoCommon"
            },
            "Roact": {
                "$path": "../modules/roact"
            },
            "TestEZ": {
                "$path": "../modules/testez"
            },
            "t": {
                "$path": "../modules/t"
            }
        },
        "ServerStorage": {
            "$className": "ServerStorage",
            "ServerModules": {
                "$path": "src/ServerModules",
                "Dyno": {
                    "$path": "../src/Dyno"
                }
            },
            "ServerLoader": {
                "$path": "../modules/crosswalk/src/ServerLoader"
            }
        },
        "ServerScriptService": {
            "$className": "ServerScriptService",
            "main": {
                "$path": "../modules/crosswalk/src/Main.server.lua"
            }
        },
        "Workspace": {
            "$properties": {
                "FilteringEnabled": true
            },
            "Model": {
                "$path": "assets/world.rbxmx"
            }
        }
    }
}